Division,WeightClassKg,Place,Name,Team,BodyweightKg,Best3SquatKg,Best3BenchKg,Best3DeadliftKg,TotalKg,Equipment,Event,Sex,BirthDate
Boys,51.71,1,Logan Maddox,Dawson,50.62,129.27,74.84,131.54,335.66,Unlimited,SBD,M,
Boys,51.71,2,Korbyn Carver,Fruitvale,47.17,108.86,56.7,127.01,292.57,Unlimited,SBD,M,
Boys,51.71,3,Ayden Smith,Beckville,51.62,111.13,68.04,102.06,281.23,Unlimited,SBD,M,
Boys,51.71,4,Angel Olvera,Wolfe City,44.18,104.33,65.77,108.86,278.96,Unlimited,SBD,M,
Boys,51.71,5,Evin Mauldin,Bogata Rivercrest,51.71,95.25,77.11,106.59,278.96,Unlimited,SBD,M,
Boys,51.71,6,Konner Youmans,Harleton,49.99,72.57,43.09,74.84,190.51,Unlimited,SBD,M,
Boys,51.71,7,Connor Shields,Fruitvale,51.26,70.31,29.48,88.45,188.24,Unlimited,SBD,M,
Boys,51.71,DQ,Kode Ewing,Detroit,47.81,122.47,,,,Unlimited,SBD,M,
Boys,51.71,DQ,Jake Stufflebeme,Trenton,50.08,79.38,43.09,,,Unlimited,SBD,M,
Boys,55.79,1,Sebastian Ortega,Celeste,55.52,151.95,102.06,156.49,410.5,Unlimited,SBD,M,
Boys,55.79,2,Jake Harris,Garrison,54.79,142.88,88.45,142.88,374.21,Unlimited,SBD,M,
Boys,55.79,3,Dakota McCoy,Gilmer Union Hill,55.7,111.13,58.97,136.08,306.17,Unlimited,SBD,M,
Boys,55.79,4,Hayden Crews,Laird Hill Leveretts Chapel,55.7,90.72,61.23,111.13,263.08,Unlimited,SBD,M,
Boys,55.79,5,Clay Horton,Wolfe City,53.52,90.72,54.43,106.59,251.74,Unlimited,SBD,M,
Boys,55.79,6,Ashton Slaton,Celeste,54.7,92.99,56.7,102.06,251.74,Unlimited,SBD,M,
Boys,55.79,7,Lamare Williams,Pineland West Sabine,52.71,77.11,56.7,104.33,238.14,Unlimited,SBD,M,
Boys,55.79,8,Tristan McCauley,Pineland West Sabine,53.25,77.11,56.7,102.06,235.87,Unlimited,SBD,M,
Boys,55.79,9,Jp Fendley,Trenton,54.88,81.65,49.9,102.06,233.6,Unlimited,SBD,M,
Boys,59.87,1,Dre Patt,Honey Grove,58.79,208.65,113.4,195.04,517.1,Unlimited,SBD,M,
Boys,59.87,2,Dario Reyes,Shelbyville,57.79,192.78,122.47,179.17,494.42,Unlimited,SBD,M,
Boys,59.87,3,Case Reisor,Celeste,59.6,185.97,104.33,195.04,485.34,Unlimited,SBD,M,
Boys,59.87,4,Lucas Woolem,Ore City,58.15,185.97,113.4,181.44,480.81,Unlimited,SBD,M,
Boys,59.87,5,Nick Michka,Celeste,59.78,179.17,124.74,176.9,480.81,Unlimited,SBD,M,
Boys,59.87,6,Johnpaul Johnson,Garrison,57.24,151.95,106.59,158.76,417.3,Unlimited,SBD,M,
Boys,59.87,7,Boston Clark,Gilmer Union Hill,59.15,158.76,97.52,154.22,410.5,Unlimited,SBD,M,
Boys,59.87,8,Gary Dacus,Gladewater Union Grove,59.42,138.35,86.18,136.08,360.61,Unlimited,SBD,M,
Boys,59.87,9,Jakoby Sumner,Gilmer Union Hill,58.06,120.2,74.84,149.69,344.73,Unlimited,SBD,M,
Boys,59.87,10,Isaiah O'Neal,Gladewater Union Grove,58.79,129.27,72.57,136.08,337.93,Unlimited,SBD,M,
Boys,59.87,11,Caleb Inocencio,Ore City,57.88,120.2,70.31,138.35,328.85,Unlimited,SBD,M,
Boys,59.87,DQ,Austin Middleton,Detroit,58.42,145.15,,,,Unlimited,SBD,M,
Boys,67.13,1,Avery Yarbrough,Garrison,66.04,204.12,140.61,229.06,573.79,Unlimited,SBD,M,
Boys,67.13,2,Devin Espinoza,Gilmer Union Hill,63.41,192.78,147.42,199.58,539.77,Unlimited,SBD,M,
Boys,67.13,3,Kameron Striegel,Pineland West Sabine,63.23,174.63,124.74,204.12,503.49,Unlimited,SBD,M,
Boys,67.13,4,Rylan Rosser,Clarksville,66.68,167.83,99.79,199.58,467.2,Unlimited,SBD,M,
Boys,67.13,5,Mason Banker,Honey Grove,65.77,188.24,102.06,172.37,462.66,Unlimited,SBD,M,
Boys,67.13,6,Jacob Gatlin,Joaquin,64.95,179.17,97.52,170.1,446.79,Unlimited,SBD,M,
Boys,67.13,DQ,Luke Drake,Italy,66.77,,,,,Unlimited,SBD,M,
Boys,67.13,DQ,Brendan Scott,Harleton,67.13,170.1,108.86,,,Unlimited,SBD,M,
Boys,67.13,DQ,Carson Weaver,Simms Bowie,67.13,161.03,,,,Unlimited,SBD,M,
Boys,67.13,DQ,Cannon Miller,Wolfe City,63.32,176.9,,,,Unlimited,SBD,M,
Boys,74.84,1,Cole Heard,Beckville,73.75,226.8,147.42,201.85,576.06,Unlimited,SBD,M,
Boys,74.84,2,Brayden May,Kerens,73.75,204.12,170.1,183.7,557.92,Unlimited,SBD,M,
Boys,74.84,3,Brandon Aguilar,Garrison,73.94,185.97,111.13,197.31,494.42,Unlimited,SBD,M,
Boys,74.84,4,Jacob Brewster,Gilmer Union Hill,72.57,192.78,122.47,170.1,485.34,Unlimited,SBD,M,
Boys,74.84,5,Wade Powers,Overton,70.67,181.44,104.33,172.37,458.13,Unlimited,SBD,M,
Boys,74.84,DQ,Ronnie Williams,Shelbyville,73.21,170.1,113.4,,,Unlimited,SBD,M,
Boys,74.84,DQ,Grady Ford,Celeste,72.57,201.85,,,,Unlimited,SBD,M,
Boys,74.84,DQ,Timothy Ryals,Frankston,73.94,,,,,Unlimited,SBD,M,
Boys,74.84,DQ,Lucas Duncan,Harleton,74.03,,,,,Unlimited,SBD,M,
Boys,74.84,DQ,Hayden Harris,Malakoff Cross Roads,73.12,,,,,Unlimited,SBD,M,
Boys,74.84,DQ,Hunter Klima,Overton,72.67,158.76,113.4,,,Unlimited,SBD,M,
Boys,82.1,1,Omarion Rasberry,Garrison,79.83,249.48,174.63,249.48,673.58,Unlimited,SBD,M,
Boys,82.1,2,Antonio Rodriguez,Kerens,80.56,204.12,183.7,199.58,587.4,Unlimited,SBD,M,
Boys,82.1,3,Sergio Reyes,Shelbyville,80.47,190.51,120.2,204.12,514.83,Unlimited,SBD,M,
Boys,82.1,4,Jamie Fuller,Garrison,81.1,188.24,131.54,185.97,505.76,Unlimited,SBD,M,
Boys,82.1,5,Justin Weir,Overton,79.29,167.83,142.88,192.78,503.49,Unlimited,SBD,M,
Boys,82.1,6,Tristan Williamson,Hawkins,80.01,188.24,113.4,179.17,480.81,Unlimited,SBD,M,
Boys,82.1,7,Marcus Rinehart,Hawkins,81.1,185.97,117.93,174.63,478.54,Unlimited,SBD,M,
Boys,82.1,8,Griffin Barham,Garrison,80.29,181.44,108.86,183.7,474,Unlimited,SBD,M,
Boys,82.1,9,Justin Green,Cumby,79.47,174.63,113.4,170.1,458.13,Unlimited,SBD,M,
Boys,82.1,DQ,Blaine Farmer,Detroit,81.28,192.78,,,,Unlimited,SBD,M,
Boys,82.1,DQ,Cameron Johnson,Harleton,79.47,,,,,Unlimited,SBD,M,
Boys,89.81,1,Adam Lindgren,Garrison,87.54,281.23,165.56,206.38,653.17,Unlimited,SBD,M,
Boys,89.81,2,Reyce' Bailey,Maud,83.91,240.4,136.08,229.06,605.55,Unlimited,SBD,M,
Boys,89.81,3,Gannon Cook,Big Sandy,88.63,238.14,154.22,206.38,598.74,Unlimited,SBD,M,
Boys,89.81,4,Levi Beavers,Honey Grove,89.72,224.53,149.69,195.04,569.26,Unlimited,SBD,M,
Boys,89.81,5,Hd Davis,Wolfe City,84.28,229.06,154.22,183.7,566.99,Unlimited,SBD,M,
Boys,89.81,6,Troy Conley,Hawkins,87.54,199.58,151.95,206.38,557.92,Unlimited,SBD,M,
Boys,89.81,7,Bo Pollard,Garrison,85.64,215.46,145.15,188.24,548.85,Unlimited,SBD,M,
Boys,89.81,8,Kobe Patt,Honey Grove,87.09,210.92,127.01,201.85,539.77,Unlimited,SBD,M,
Boys,89.81,9,Dustin Welch,Pineland West Sabine,89.18,183.7,120.2,204.12,508.02,Unlimited,SBD,M,
Boys,89.81,10,Trevor Stincipher,Overton,89.27,181.44,131.54,190.51,503.49,Unlimited,SBD,M,
Boys,89.81,DQ,Chesney Wilkins,Shelbyville,88.18,199.58,,,,Unlimited,SBD,M,
Boys,89.81,DQ,Tristan Nichols,Celeste,88.36,244.94,,,,Unlimited,SBD,M,
Boys,99.79,1,Jesse Traxler,Garrison,94.62,247.21,142.88,233.6,623.69,Unlimited,SBD,M,
Boys,99.79,2,Brody Mahan,Honey Grove,97.7,210.92,170.1,231.33,612.35,Unlimited,SBD,M,
Boys,99.79,3,Jose Gonzalez,Shelbyville,98.79,226.8,145.15,219.99,591.94,Unlimited,SBD,M,
Boys,99.79,4,Antonio Torres,Honey Grove,99.06,208.65,140.61,206.38,555.65,Unlimited,SBD,M,
Boys,99.79,5,Canden Green,Simms Bowie,97.34,226.8,142.88,181.44,551.11,Unlimited,SBD,M,
Boys,99.79,6,Gage Sanders,Wolfe City,98.7,204.12,154.22,192.78,551.11,Unlimited,SBD,M,
Boys,99.79,7,Isley Jackson,Hawkins,97.98,208.65,133.81,195.04,537.51,Unlimited,SBD,M,
Boys,99.79,8,Zachary Johnson,Cayuga,96.43,199.58,131.54,181.44,512.56,Unlimited,SBD,M,
Boys,99.79,9,Tyson Tapley,Big Sandy,98.97,213.19,90.72,204.12,508.02,Unlimited,SBD,M,
Boys,99.79,10,Euan Orear,Joaquin,99.61,199.58,131.54,174.63,505.76,Unlimited,SBD,M,
Boys,99.79,DQ,Luis Inocencio,Ore City,95.71,224.53,,,,Unlimited,SBD,M,
Boys,99.79,DQ,Ozzy Granado,Quinlan Boles,99.7,226.8,124.74,,,Unlimited,SBD,M,
Boys,109.77,1,Gavin Pollard,Garrison,108.05,301.64,226.8,242.67,771.11,Unlimited,SBD,M,
Boys,109.77,2,Benedicto Beatriz,Garrison,109.59,283.5,204.12,260.82,748.43,Unlimited,SBD,M,
Boys,109.77,3,Noel Fajardo,Harleton,101.79,278.96,181.44,263.08,723.48,Unlimited,SBD,M,
Boys,109.77,4,James Rissmiller,Wortham,105.6,256.28,151.95,215.46,623.69,Unlimited,SBD,M,
Boys,109.77,5,Logan Wages,Simms Bowie,106.05,240.4,129.27,249.48,619.15,Unlimited,SBD,M,
Boys,109.77,6,Jeremiah Hidalgo,Italy,109.5,272.16,149.69,192.78,614.62,Unlimited,SBD,M,
Boys,109.77,7,Cameron Johnson,Hawkins,105.41,233.6,181.44,185.97,601.01,Unlimited,SBD,M,
Boys,109.77,8,Axel Sanchez,Honey Grove,107.59,201.85,129.27,199.58,530.7,Unlimited,SBD,M,
Boys,109.77,9,Tucker Stocvall,Shelbyville,109.77,199.58,142.88,165.56,508.02,Unlimited,SBD,M,
Boys,109.77,DQ,Abel Montero,Gilmer Union Hill,107.23,226.8,,,,Unlimited,SBD,M,
Boys,109.77,DQ,Bryce Lockhart,Harleton,107.14,,,,,Unlimited,SBD,M,
Boys,109.77,DQ,Tyler Callaway,Fruitvale,109.59,,,,,Unlimited,SBD,M,
Boys,109.77,DQ,Ayden Atkinson,Maud,108.59,185.97,149.69,,,Unlimited,SBD,M,
Boys,124.74,1,Briley Rogers,Pineland West Sabine,123.47,317.51,197.31,263.08,777.91,Unlimited,SBD,M,
Boys,124.74,2,Layton Williams,Alba-Golden,122.11,283.5,158.76,260.82,703.07,Unlimited,SBD,M,
Boys,124.74,3,Peyton Murray,Harleton,119.2,260.82,136.08,238.14,635.03,Unlimited,SBD,M,
Boys,124.74,4,Steven Long,Frankston,115.39,244.94,147.42,240.4,632.76,Unlimited,SBD,M,
Boys,124.74,5,Alex Puentes,Wolfe City,113.94,240.4,188.24,185.97,614.62,Unlimited,SBD,M,
Boys,124.74,6,Brayden Dotson,Frankston,122.65,251.74,145.15,213.19,610.08,Unlimited,SBD,M,
Boys,124.74,7,Tate Banker,Honey Grove,115.12,244.94,158.76,195.04,598.74,Unlimited,SBD,M,
Boys,124.74,8,Jose Garcia,Celeste,121.38,235.87,167.83,183.7,587.4,Unlimited,SBD,M,
Boys,124.74,9,Jase Williams,Wolfe City,119.29,190.51,154.22,206.38,551.11,Unlimited,SBD,M,
Boys,124.74,10,Gage Harmon,Celeste,114.31,204.12,161.03,174.63,539.77,Unlimited,SBD,M,
Boys,124.74,DQ,Mitch Mobley,Gilmer Union Hill,116.75,231.33,,,,Unlimited,SBD,M,
Boys,124.74,DQ,Hagan Carr,Italy,121.02,,,,,Unlimited,SBD,M,
Boys,139.71,1,Jabrahlyn Jones,Garrison,139.62,317.51,174.63,272.16,764.3,Unlimited,SBD,M,
Boys,139.71,2,Mason Morris,Gilmer Union Hill,138.44,276.69,204.12,217.72,698.53,Unlimited,SBD,M,
Boys,139.71,3,Austin Allen,Simms Bowie,139.62,285.76,179.17,233.6,698.53,Unlimited,SBD,M,
Boys,139.71,4,Cash Ottwell,Celeste,137.71,233.6,219.99,222.26,675.85,Unlimited,SBD,M,
Boys,139.71,5,Evan Sensat,Pineland West Sabine,136.35,240.4,183.7,219.99,644.1,Unlimited,SBD,M,
Boys,139.71,6,Jayden Galindo,Honey Grove,133.9,272.16,158.76,210.92,641.83,Unlimited,SBD,M,
Boys,139.71,7,Kayden Johnson,Harleton,127.46,240.4,136.08,217.72,594.21,Unlimited,SBD,M,
Boys,139.71,8,Michael Wren,Dawson,131.9,233.6,142.88,215.46,591.94,Unlimited,SBD,M,
Boys,139.71,9,William Andrade,Overton,136.71,226.8,138.35,199.58,564.72,Unlimited,SBD,M,
Boys,139.71,10,Braxton Chenney,Bogata Rivercrest,131.63,215.46,122.47,204.12,542.04,Unlimited,SBD,M,
Boys,139.71,11,Stephen Morrison,Pineland West Sabine,130.73,183.7,131.54,199.58,514.83,Unlimited,SBD,M,
Boys,139.71,DQ,Vance Fletcher,Overton,125.19,219.99,127.01,,,Unlimited,SBD,M,
Boys,139.71+,1,Rhett Tucker,Simms Bowie,163.66,326.59,181.44,247.21,755.23,Unlimited,SBD,M,
Boys,139.71+,2,Kadden Williams,Overton,187.15,306.17,206.38,226.8,739.36,Unlimited,SBD,M,
Boys,139.71+,3,Sawyer Price,Honey Grove,167.01,238.14,163.29,231.33,632.76,Unlimited,SBD,M,
Boys,139.71+,4,Julian Griffin,Hawkins,156.4,260.82,151.95,204.12,616.89,Unlimited,SBD,M,
Boys,139.71+,5,Mason Barton,Detroit,142.07,235.87,140.61,213.19,589.67,Unlimited,SBD,M,
Boys,139.71+,6,Brody Cummings,Joaquin,158.39,208.65,136.08,204.12,548.85,Unlimited,SBD,M,
Boys,139.71+,7,Zane Sears,Harleton,152.68,208.65,142.88,190.51,542.04,Unlimited,SBD,M,
Boys,139.71+,8,Aidan Acosta,Maud,169.01,201.85,131.54,204.12,537.51,Unlimited,SBD,M,
Boys,139.71+,9,Chris Foster,Overton,145.06,204.12,106.59,199.58,510.29,Unlimited,SBD,M,
Boys,139.71+,10,Grayson McDonald,Beckville,147.87,181.44,102.06,158.76,442.25,Unlimited,SBD,M,
Boys,139.71+,DQ,Slade Pollard,Garrison,161.57,283.5,,,,Unlimited,SBD,M,
