Division,WeightClassKg,Place,Name,Team,BodyweightKg,Best3SquatKg,Best3BenchKg,Best3DeadliftKg,TotalKg,Equipment,Event,Sex,BirthDate
Boys,51.71,1,Sergio Perales,Midland Legacy,51.26,147.42,79.38,170.1,396.89,Unlimited,SBD,M,
Boys,51.71,2,Lucas McNeely,Monahans,51.62,145.15,90.72,147.42,383.29,Unlimited,SBD,M,
Boys,51.71,3,Quan Tran,Midland Legacy,51.71,129.27,83.91,138.35,351.53,Unlimited,SBD,M,
Boys,51.71,4,Aiden Gonzales,Andrews,50.71,127.01,72.57,138.35,337.93,Unlimited,SBD,M,
Boys,51.71,5,Jeremiah Roman,Midland Legacy,51.62,115.67,72.57,131.54,319.78,Unlimited,SBD,M,
Boys,51.71,6,Preston Jhagroo,Andrews,44.54,127.01,61.23,129.27,317.51,Unlimited,SBD,M,
Boys,51.71,7,Caden Reynoso,Big Spring,50.08,104.33,58.97,117.93,281.23,Unlimited,SBD,M,
Boys,55.79,1,Talon Cavazos,Big Spring,54.7,151.95,95.25,185.97,433.18,Unlimited,SBD,M,
Boys,55.79,2,Josiah Cavazos,Big Spring,55.34,147.42,95.25,161.03,403.7,Unlimited,SBD,M,
Boys,55.79,3,Hunter Outlaw,Midland Greenwood,51.98,147.42,81.65,136.08,365.14,Unlimited,SBD,M,
Boys,59.87,1,David Haygood,Andrews,58.88,176.9,99.79,195.04,471.74,Unlimited,SBD,M,
Boys,59.87,2,Xander Sanchez,Midland Legacy,59.69,154.22,88.45,190.51,433.18,Unlimited,SBD,M,
Boys,59.87,3,Alex Gonzales,Monahans,59.87,138.35,129.27,149.69,417.3,Unlimited,SBD,M,
Boys,59.87,4,Casen Moore,Monahans,58.15,127.01,92.99,147.42,367.41,Unlimited,SBD,M,
Boys,59.87,5,Brayden Bryant,Big Spring,56.43,122.47,77.11,111.13,310.71,Unlimited,SBD,M,
Boys,67.13,1,Leo Novogradic,Andrews,65.23,199.58,124.74,197.31,521.63,Unlimited,SBD,M,
Boys,67.13,2,Gabriel Alaniz,Midland Legacy,65.77,179.17,95.25,190.51,464.93,Unlimited,SBD,M,
Boys,67.13,3,Angel Sosa,Midland Greenwood,65.59,183.7,104.33,161.03,449.06,Unlimited,SBD,M,
Boys,67.13,4,Jared Brantley,Pecos,66.22,161.03,113.4,172.37,446.79,Unlimited,SBD,M,
Boys,67.13,5,Christian Dominguez,Fort Stockton,65.32,158.76,99.79,176.9,435.45,Unlimited,SBD,M,
Boys,67.13,6,Ross Hale,Midland Legacy,66.77,129.27,99.79,131.54,360.61,Unlimited,SBD,M,
Boys,67.13,7,Drew Valbuena,Big Spring,60.78,124.74,81.65,147.42,353.8,Unlimited,SBD,M,
Boys,67.13,8,Jessai Bejarano,Fort Stockton,65.86,129.27,72.57,136.08,337.93,Unlimited,SBD,M,
Boys,67.13,9,David Hernandez,Monahans,63.14,124.74,65.77,142.88,333.39,Unlimited,SBD,M,
Boys,67.13,DQ,Marcos Paredez,Big Spring,63.41,158.76,99.79,,,Unlimited,SBD,M,
Boys,67.13,DQ,Jayden Ramirez,Fort Stockton,62.78,151.95,,,,Unlimited,SBD,M,
Boys,74.84,1,Merq Saiz,Andrews,74.84,242.67,170.1,242.67,655.44,Unlimited,SBD,M,
Boys,74.84,2,Makinly Espinoza,Andrews,73.39,208.65,129.27,208.65,546.58,Unlimited,SBD,M,
Boys,74.84,3,Juan Hernandez,Pecos,72.39,165.56,127.01,176.9,469.47,Unlimited,SBD,M,
Boys,74.84,4,Jacob Pesina,Midland Legacy,73.3,176.9,124.74,158.76,460.4,Unlimited,SBD,M,
Boys,74.84,5,Seth Vargas,Monahans,69.94,170.1,90.72,174.63,435.45,Unlimited,SBD,M,
Boys,74.84,6,Nathaniel Gonzales,Fort Stockton,68.49,149.69,86.18,167.83,403.7,Unlimited,SBD,M,
Boys,74.84,7,Isaiah Ramos,Marfa,68.13,127.01,90.72,142.88,360.61,Unlimited,SBD,M,
Boys,82.1,1,Brandon Salazar,Midland Greenwood,79.38,269.89,151.95,219.99,641.83,Unlimited,SBD,M,
Boys,82.1,2,Carter Sanchez,Midland Greenwood,80.2,185.97,127.01,188.24,501.22,Unlimited,SBD,M,
Boys,82.1,3,Jack Hamby,Big Spring,75.02,181.44,113.4,183.7,478.54,Unlimited,SBD,M,
Boys,82.1,DQ,Kaden Jaramillo,Andrews,78.47,136.08,,,,Unlimited,SBD,M,
Boys,89.81,1,Connor McCrary,Andrews,88.36,297.1,188.24,288.03,773.37,Unlimited,SBD,M,
Boys,89.81,2,Andrew Martinez,Andrews,86.82,249.48,158.76,240.4,648.64,Unlimited,SBD,M,
Boys,89.81,3,Jadyn Natividad,Pecos,87.91,240.4,142.88,222.26,605.55,Unlimited,SBD,M,
Boys,89.81,4,Lane Thomas,Andrews,86.45,179.17,113.4,181.44,474,Unlimited,SBD,M,
Boys,89.81,DQ,Tyson Valenzuela,Andrews,89.27,238.14,161.03,,,Unlimited,SBD,M,
Boys,89.81,DQ,Keaton Chavez,Monahans,82.74,151.95,99.79,,,Unlimited,SBD,M,
Boys,99.79,1,Hector Lozoya,Andrews,96.43,260.82,167.83,215.46,644.1,Unlimited,SBD,M,
Boys,99.79,2,Lash Caldwell,Monahans,98.07,219.99,115.67,222.26,557.92,Unlimited,SBD,M,
Boys,99.79,3,Julian Mendoza,Pecos,99.43,217.72,124.74,188.24,530.7,Unlimited,SBD,M,
Boys,99.79,4,Adyn Tristan,Big Spring,99.43,192.78,102.06,170.1,464.93,Unlimited,SBD,M,
Boys,99.79,5,Matthew Sandoval,Big Spring,91.81,183.7,113.4,165.56,462.66,Unlimited,SBD,M,
Boys,99.79,DQ,Julian Varela,Andrews,97.43,231.33,,,,Unlimited,SBD,M,
Boys,109.77,1,Carlos Barraza,Midland Greenwood,103.42,247.21,185.97,217.72,650.91,Unlimited,SBD,M,
Boys,109.77,2,Adrian Reza,Midland Greenwood,106.68,222.26,172.37,217.72,612.35,Unlimited,SBD,M,
Boys,109.77,3,Max Pierce,Andrews,101.15,254.01,151.95,199.58,605.55,Unlimited,SBD,M,
Boys,109.77,4,Jonathan Taylor,Midland Legacy,107.41,215.46,158.76,226.8,601.01,Unlimited,SBD,M,
Boys,109.77,5,Anthony Rivera,Monahans,101.97,231.33,124.74,229.06,585.13,Unlimited,SBD,M,
Boys,109.77,6,Jacob Roberts,Andrews,106.23,247.21,136.08,195.04,578.33,Unlimited,SBD,M,
Boys,109.77,7,Collin Byrne,Midland Legacy,107.32,192.78,154.22,195.04,542.04,Unlimited,SBD,M,
Boys,109.77,8,Ethan Jimenez,Fort Stockton,106.14,226.8,117.93,192.78,537.51,Unlimited,SBD,M,
Boys,109.77,9,Diego Jurado,Marfa,109.32,199.58,129.27,204.12,532.97,Unlimited,SBD,M,
Boys,109.77,10,Alonzo Uranga,Monahans,101.6,210.92,120.2,192.78,523.9,Unlimited,SBD,M,
Boys,109.77,11,Jose Sarabia,Fort Stockton,102.87,199.58,97.52,167.83,464.93,Unlimited,SBD,M,
Boys,109.77,12,Davian Gonzales,Andrews,106.05,156.49,108.86,195.04,460.4,Unlimited,SBD,M,
Boys,124.74,1,Isaih Montoya,Andrews,120.38,340.19,195.04,256.28,791.52,Unlimited,SBD,M,
Boys,124.74,2,Chad Tripp,Midland Legacy,122.38,306.17,183.7,226.8,716.68,Unlimited,SBD,M,
Boys,124.74,3,Oscar Cerda,Midland Legacy,120.2,265.35,161.03,240.4,666.78,Unlimited,SBD,M,
Boys,124.74,4,Garrett Dalton,Midland Greenwood,123.65,272.16,161.03,215.46,648.64,Unlimited,SBD,M,
Boys,124.74,5,Dylan Carr,Midland Greenwood,110.59,233.6,151.95,201.85,587.4,Unlimited,SBD,M,
Boys,124.74,6,Cash Flores,Monahans,117.03,222.26,149.69,199.58,571.53,Unlimited,SBD,M,
Boys,124.74,7,Jordan Roberts,Big Spring,120.2,217.72,117.93,206.38,542.04,Unlimited,SBD,M,
Boys,124.74,8,Josiah New,Big Spring,115.94,208.65,113.4,206.38,528.44,Unlimited,SBD,M,
Boys,139.71,1,Joey Alvarez,Andrews,133.27,272.16,163.29,254.01,689.46,Unlimited,SBD,M,
Boys,139.71,2,Mason Rivero,Pecos,130.54,272.16,167.83,199.58,639.57,Unlimited,SBD,M,
Boys,139.71,3,Nathan Martinez,Andrews,127.28,226.8,131.54,217.72,576.06,Unlimited,SBD,M,
Boys,139.71,4,Austin Reyes,Midland Legacy,133.63,204.12,165.56,204.12,573.79,Unlimited,SBD,M,
Boys,139.71,5,Jayce Harris,Pecos,125.55,222.26,140.61,197.31,560.19,Unlimited,SBD,M,
Boys,139.71,DQ,Zadrian Washington,Big Spring,128.09,217.72,136.08,,,Unlimited,SBD,M,
Boys,139.71,DQ,Rhilley Allen,Midland Greenwood,137.17,183.7,,,,Unlimited,SBD,M,
Boys,139.71+,1,Carlos Ramirez,Pecos,152.32,317.51,158.76,235.87,712.14,Unlimited,SBD,M,
