Place,Name,Sex,BirthYear,Age,Country,Equipment,Division,BodyweightKg,Squat1Kg,Squat2Kg,Squat3Kg,Best3SquatKg,Bench1Kg,Bench2Kg,Bench3Kg,Best3BenchKg,Deadlift1Kg,Deadlift2Kg,Deadlift3Kg,Best3DeadliftKg,TotalKg,Event,BirthDate
1,Zita Maria McCabe,F,,,,Wraps,Division 1 Female,64.7,-135,-140,140,140,60,65,-67.5,65,140,155,162.5,162.5,367.5,SBD,
2,Malin Ånes,F,,,,Raw,Division 1 Female,73.2,120,130,137.5,137.5,70,80,82.5,82.5,162.5,172.5,-175,172.5,392.5,SBD,
3,Emily Allan,F,,,,Wraps,Division 1 Female,90.8,160,-175,175,175,70,80,-85,80,160,180,-185,180,435,SBD,
4,Karolina Jarosinska,F,,,,Wraps,Division 1 Female,63.4,122.5,127.5,-132.5,127.5,75,-77.5,-77.5,75,147.5,-155,-155,147.5,350,SBD,
5,Emma Keyes,F,,,,Wraps,Division 1 Female,68.1,125,132.5,140,140,60,62.5,-65,62.5,150,-160,160,160,362.5,SBD,
6,Elena O'Halloran,F,,,,Wraps,Division 1 Female,67.5,125,132.5,-137.5,132.5,57.5,62.5,65,65,140,152.5,157.5,157.5,355,SBD,
7,Caitriona Whelan,F,,,,Wraps,Division 1 Female,58.7,110,120,-125,120,-50,55,-57.5,55,120,130,-135,130,305,SBD,
1,Kerry Moroney,F,,,,Wraps,Division 2 Female,69.3,115,122.5,130,130,65,67.5,70,70,145,155,167.5,167.5,367.5,SBD,
2,Shannon Phillips,F,,,,Wraps,Division 2 Female,71.5,130,140,-147.5,140,60,65,-70,65,145,155,-170,155,360,SBD,
3,Emma Lawlor,F,,,,Wraps,Division 2 Female,65.8,117.5,122.5,125,125,52.5,57.5,-62.5,57.5,125,137.5,147.5,147.5,330,SBD,
4,René Curtis,F,,,,Wraps,Division 2 Female,54.6,97.5,107.5,112.5,112.5,47.5,50,-52.5,50,105,117.5,127.5,127.5,290,SBD,
5,Andrea Maher,F,,,,Raw,Division 2 Female,60.8,95,100,102.5,102.5,55,60,65,65,125,135,142.5,142.5,310,SBD,
6,Alice Swain,F,,,,Wraps,Division 2 Female,63.7,92.5,97.5,102.5,102.5,62.5,67.5,70,70,120,-130,132.5,132.5,305,SBD,
7,Keava Markey,F,,,,Wraps,Division 2 Female,84.6,125,135,142.5,142.5,55,-57.5,-57.5,55,145,155,-160,155,352.5,SBD,
8,Aoibhon McKeever,F,,,,Wraps,Division 2 Female,65.1,100,110,115,115,45,47.5,50,50,112.5,122.5,130,130,295,SBD,
9,Elizabeth Dermody,F,,,,Wraps,Division 2 Female,79,105,112.5,117.5,117.5,50,55,57.5,57.5,130,140,150,150,325,SBD,
10,Elizabeth Mulligan,F,,,,Wraps,Division 2 Female,93.4,122.5,130,-135,130,55,57.5,60,60,125,132.5,137.5,137.5,327.5,SBD,
11,Charlotte Homer,F,,,,Wraps,Division 2 Female,108.1,110,120,127.5,127.5,60,65,-70,65,127.5,142.5,150,150,342.5,SBD,
12,Olivia Krief,F,,,,Wraps,Division 2 Female,62.3,85,90,-92.5,90,47.5,-50,-50,47.5,105,115,-120,115,252.5,SBD,
13,Veronica Harvey,F,,,,Wraps,Division 2 Female,99.1,90,102.5,110,110,50,55,57.5,57.5,125,132.5,135,135,302.5,SBD,
14,Chloe Fulham,F,,,,Wraps,Division 2 Female,86.3,-95,97.5,-105,97.5,42.5,47.5,-50,47.5,130,137.5,-142.5,137.5,282.5,SBD,
15,Lucia Lig Kennedy,F,,,,Wraps,Division 2 Female,72.5,75,85,-92.5,85,42.5,47.5,52.5,52.5,95,105,112.5,112.5,250,SBD,
16,Katie Clover,F,,,,Wraps,Division 2 Female,87.7,-77.5,80,90,90,47.5,-52.5,-52.5,47.5,95,105,110,110,247.5,SBD,
17,Lynsey Mac Gowan,F,,,,Wraps,Division 2 Female,50.4,47.5,-52.5,55,55,32.5,37.5,40,40,65,72.5,77.5,77.5,172.5,SBD,
18,Jennifer Feehan,F,,,,Wraps,Division 2 Female,55.3,45,-52.5,-52.5,45,27.5,30,-35,30,65,75,85,85,160,SBD,
1,Erin Gibson,F,,,Wales,Wraps,ProAM Female,102.7,260,275,-285,275,120,127.5,-132.5,127.5,240,255,-265,255,657.5,SBD,
2,Louise K Whelan,F,,,,Wraps,ProAM Female,84,185,197.5,202.5,202.5,107.5,115,117.5,117.5,180,192.5,202.5,202.5,522.5,SBD,
3,Lota Leinberga,F,,,,Wraps,ProAM Female,65.6,-155,160,-167.5,160,90,95,97.5,97.5,160,-170,170,170,427.5,SBD,
4,Megan Fitzpatrick,F,,,,Wraps,ProAM Female,68,155,170,175,175,75,80,82.5,82.5,155,170,-180,170,427.5,SBD,
5,Kristina Dunkhase,F,,,Scotland,Raw,ProAM Female,75,140,150,-152.5,150,97.5,102.5,-105,102.5,175,190,-195,190,442.5,SBD,
6,Comfort Adedokun,F,,,,Raw,ProAM Female,83.3,147.5,165,170,170,77.5,87.5,92.5,92.5,165,182.5,190,190,452.5,SBD,
7,Nicola Brown,F,,,,Wraps,ProAM Female,55.7,125,-135,-140,125,62.5,67.5,-70,67.5,135,145,-150,145,337.5,SBD,
1,Lan Gaffney,F,,,,Wraps,U23 Female,59.1,130,140,150,150,72.5,77.5,-80,77.5,140,147.5,-150,147.5,375,SBD,
2,Ellen O'Leary,F,,,,Wraps,U23 Female,60.9,-137.5,137.5,-147.5,137.5,-72.5,72.5,77.5,77.5,165,-175,-175,165,380,SBD,
3,Fina Doyle,F,,,,Wraps,U23 Female,54,112.5,120,-122.5,120,60,65,67.5,67.5,145,152.5,155,155,342.5,SBD,
4,Sarah Doyle #1,F,,,,Wraps,U23 Female,71.6,130,137.5,142.5,142.5,60,65,-70,65,145,155,160,160,367.5,SBD,2001-10-27
5,Jenny Reid,F,,,,Wraps,U23 Female,65.2,110,120,125,125,60,65,67.5,67.5,135,147.5,-152.5,147.5,340,SBD,
6,Naomi Hannon,F,,,,Wraps,U23 Female,72.2,142.5,150,-155,150,52.5,-55,-55,52.5,132.5,140,-145,140,342.5,SBD,
7,Lauren Domaille,F,,,,Wraps,U23 Female,72.4,-112.5,112.5,120,120,50,55,-60,55,125,140,160,160,335,SBD,
8,Bláthnaid O'Dwyer,F,,,,Wraps,U23 Female,47.4,85,95,-100,95,37.5,40,-42.5,40,90,100,107.5,107.5,242.5,SBD,
9,Alisha Russell,F,,,,Wraps,U23 Female,57.2,-90,90,-100,90,40,42.5,45,45,112.5,120,125,125,260,SBD,
1,Ryan McCann,M,,,,Wraps,Division 1 Male,111.1,270,285,300,300,167.5,175,-180,175,280,300,315,315,790,SBD,
2,Serban Baci,M,,,Norway,Wraps,Division 1 Male,83.3,240,-250,250,250,150,-157.5,157.5,157.5,262.5,-277.5,282.5,282.5,690,SBD,
3,Kevin McDermott,M,,,,Wraps,Division 1 Male,102.5,235,252.5,270,270,155,162.5,170,170,262.5,282.5,300,300,740,SBD,
4,Daniel Docherty,M,,,,Raw,Division 1 Male,128.1,300,320,-330,320,180,-190,-190,180,260,280,290,290,790,SBD,
5,Tristan Jacobs,M,,,,Wraps,Division 1 Male,80.6,215,225,230,230,150,155,157.5,157.5,-240,240,-255,240,627.5,SBD,
6,Edward McGarry,M,,,,Wraps,Division 1 Male,93.7,225,237.5,-242.5,237.5,160,-170,-170,160,260,280,-290,280,677.5,SBD,
7,Luka Radilovic,M,,,,Wraps,Division 1 Male,162.5,275,300,310,310,150,160,-165,160,300,330,-345,330,800,SBD,
8,Sean Keyes,M,,,,Wraps,Division 1 Male,87.8,225,-237.5,237.5,237.5,125,135,140,140,240,252.5,265,265,642.5,SBD,
9,Jay Doyle,M,,,,Wraps,Division 1 Male,105.4,255,-270,-270,255,150,-157.5,-157.5,150,280,290,-300,290,695,SBD,
10,Josh Chamberlaine,M,,,,Wraps,Division 1 Male,77.2,210,220,225,225,115,122.5,127.5,127.5,210,225,240,240,592.5,SBD,
11,Ves Valchev,M,,,,Wraps,Division 1 Male,95,220,230,240,240,137.5,145,150,150,250,262.5,272.5,272.5,662.5,SBD,
12,Jonas Diefenbach,M,,,,Wraps,Division 1 Male,85.2,225,240,-247.5,240,140,-147.5,-147.5,140,235,245,-250,245,625,SBD,
13,Nick Thomas #2,M,,,,Wraps,Division 1 Male,82.9,197.5,217.5,227.5,227.5,135,145,-147.5,145,220,240,-250,240,612.5,SBD,
14,Ciaran Phelan,M,,,,Wraps,Division 1 Male,99.3,230,245,255,255,120,127.5,-132.5,127.5,255,270,-280,270,652.5,SBD,
15,Jahan Miah,M,,,,Wraps,Division 1 Male,84,200,210,215,215,-125,125,140,140,240,-252.5,-252.5,240,595,SBD,
16,Jay Boggan,M,,,,Wraps,Division 1 Male,105.3,250,-260,,250,130,140,-145,140,240,260,-270,260,650,SBD,
1,Edi Malinaric,M,,,,Raw,Division 2 Male,99.2,217.5,235,245,245,132.5,140,147.5,147.5,250,270,282.5,282.5,675,SBD,
2,Paul Hearne,M,,,,Wraps,Division 2 Male,123.5,242.5,255,260,260,160,167.5,170,170,260,275,290,290,720,SBD,
3,Jakub Pracz,M,,,,Wraps,Division 2 Male,91.7,210,225,235,235,122.5,130,135,135,250,265,-280,265,635,SBD,
4,Dariusz Ufniarz,M,,,,Wraps,Division 2 Male,80.7,200,210,215,215,145,-155,-155,145,200,210,-215,210,570,SBD,
5,James McLoughlin #1,M,,,,Raw,Division 2 Male,90.1,205,217.5,-225,217.5,125,137.5,142.5,142.5,217.5,237.5,-260,237.5,597.5,SBD,
6,Sam Barlow,M,,,,Wraps,Division 2 Male,93.4,212.5,230,240,240,102.5,110,115,115,230,252.5,-275,252.5,607.5,SBD,
7,Cristian Pontes,M,,,,Wraps,Division 2 Male,76.8,160,172.5,182.5,182.5,112.5,122.5,132.5,132.5,200,220,-230,220,535,SBD,
8,Max Drummond,M,,,,Wraps,Division 2 Male,96.8,187.5,200,207.5,207.5,137.5,147.5,152.5,152.5,210,230,-240,230,590,SBD,
9,Rama Ragupathy,M,,,,Wraps,Division 2 Male,86.6,170,180,190,190,117.5,122.5,127.5,127.5,210,222.5,237.5,237.5,555,SBD,
10,Abdul Pietrzyk,M,,,,Wraps,Division 2 Male,100.5,190,197.5,205,205,140,-150,-150,140,200,215,230,230,575,SBD,
11,Jack Gallimore,M,,,,Wraps,Division 2 Male,119.9,192.5,202.5,210,210,125,132.5,140,140,240,260,-265,260,610,SBD,
12,Stephen Harmon,M,,,,Wraps,Division 2 Male,106.6,170,185,195,195,132.5,137.5,140,140,-235,245,-265,245,580,SBD,
13,Thomas Drury,M,,,,Wraps,Division 2 Male,89.6,170,180,187.5,187.5,107.5,115,120,120,200,212.5,220,220,527.5,SBD,
14,Hugh Nowlan,M,,,,Raw,Division 2 Male,103.9,160,175,182.5,182.5,120,132.5,140,140,190,220,230,230,552.5,SBD,
15,Andrew Mcmackin,M,,,,Wraps,Division 2 Male,83.8,157.5,167.5,177.5,177.5,97.5,102.5,-107.5,102.5,195,205,-215,205,485,SBD,
16,Barry Martin,M,,,,Wraps,Division 2 Male,86.2,120,140,155,155,110,120,130,130,160,180,200,200,485,SBD,
17,Eric Wahlrab,M,,,,Raw,Division 2 Male,102.1,150,172.5,180,180,107.5,115,120,120,200,-217.5,217.5,217.5,517.5,SBD,
18,Evan Dolan,M,,,,Wraps,Division 2 Male,74.5,142.5,150,160,160,77.5,82.5,-90,82.5,155,-170,177.5,177.5,420,SBD,
19,Cian Shortt,M,,,,Wraps,Division 2 Male,86.9,137.5,147.5,157.5,157.5,90,100,107.5,107.5,-175,-182.5,190,190,455,SBD,
20,Conor Healy,M,,,,Wraps,Division 2 Male,88.8,125,132.5,145,145,65,72.5,77.5,77.5,155,170,180,180,402.5,SBD,
1,Tómas Darri Þorsteinsson,M,,,Iceland,Wraps,ProAM Male,121.3,320,345,357.5,357.5,210,230,232.5,232.5,330,350,360,360,950,SBD,
2,Mike Jones #1,M,,,England,Wraps,ProAM Male,109.9,310,337.5,-350,337.5,185,192.5,200,200,-310,330,345,345,882.5,SBD,
3,Mason Mills #1,M,,,England,Wraps,ProAM Male,139.9,360,382.5,400,400,182.5,192.5,-195,192.5,325,350,-360,350,942.5,SBD,
4,Colin Lynch,M,,,,Wraps,ProAM Male,102.9,300,312.5,320,320,200,-207.5,-207.5,200,290,305,317.5,317.5,837.5,SBD,
5,Riccardo Venturi,M,,,Italy,Wraps,ProAM Male,119.5,300,320,330,330,200,210,-220,210,-320,320,-350,320,860,SBD,
6,Ian Benson,M,,,,Wraps,ProAM Male,101.7,275,-315,-315,275,182.5,192.5,200,200,310,-337.5,-337.5,310,785,SBD,
7,Sean Blong,M,,,,Wraps,ProAM Male,82.6,240,260,272.5,272.5,150,160,165,165,240,260,267.5,267.5,705,SBD,
8,Mark Comiskey,M,,,,Wraps,ProAM Male,82.6,235,242.5,247.5,247.5,160,170,-175,170,255,270,282.5,282.5,700,SBD,
9,AJ Cronin,M,,,,Wraps,ProAM Male,121.8,290,307.5,315,315,180,192.5,195,195,290,307.5,310,310,820,SBD,
10,Nicholas Georgallides,M,,,,Wraps,ProAM Male,115.3,275,287.5,300,300,170,177.5,182.5,182.5,300,-320,320,320,802.5,SBD,
11,Marc Galligan,M,,,,Wraps,ProAM Male,96.9,255,280,-295,280,155,167.5,-170,167.5,265,290,300,300,747.5,SBD,
12,Jordan Konczak,M,,,,Wraps,ProAM Male,85.7,232.5,240,247.5,247.5,160,-165,165,165,255,267.5,-272.5,267.5,680,SBD,
13,Ray Mackey,M,,,,Wraps,ProAM Male,103.8,-265,275,-292.5,275,145,150,-155,150,275,285,-295,285,710,SBD,
14,Rob Flett,M,,,England,Wraps,ProAM Male,149.5,350,-352.5,-352.5,350,-220,220,-222.5,220,,,75,75,645,SBD,
1,George Kolar,M,,,Wales,Wraps,U23 Male,122.2,320,-350,360,360,200,215,-217.5,215,300,325,-335,325,900,SBD,
2,Conor Kiernan,M,,,,Wraps,U23 Male,105.4,285,300,305,305,185,195,200,200,300,327.5,,327.5,832.5,SBD,
3,Alex Elliott,M,,,,Wraps,U23 Male,82.7,240,-255,-255,240,170,177.5,180,180,250,265,275,275,695,SBD,
4,Adam Elalfy,M,,,,Wraps,U23 Male,100.9,240,255,265,265,155,162.5,167.5,167.5,300,-320,325,325,757.5,SBD,
5,Ebow Crankson,M,,,England,Raw,U23 Male,104.4,255,265,-275,265,155,162.5,170,170,300,320,330,330,765,SBD,
6,Marcel Miniszewski,M,,,,Wraps,U23 Male,104.2,260,280,,280,160,170,172.5,172.5,260,-275,-275,260,712.5,SBD,
7,Sam Parker,M,,,,Wraps,U23 Male,114,-265,265,-272.5,265,162.5,-172.5,-172.5,162.5,275,302.5,-315,302.5,730,SBD,
8,Jacob Crook,M,,,,Wraps,U23 Male,136.1,-245,245,265,265,145,152.5,160,160,245,260,-275,260,685,SBD,
9,Evan Wallace,M,,,,Wraps,U23 Male,70,180,192.5,-205,192.5,95,102.5,105,105,185,205,-207.5,205,502.5,SBD,
10,Nicholas Egan,M,,,,Wraps,U23 Male,141.8,245,255,265,265,140,150,157.5,157.5,220,240,260,260,682.5,SBD,
11,Ollie Brun,M,,,,Wraps,U23 Male,83,165,175,182.5,182.5,112.5,120,-127.5,120,205,220,230,230,532.5,SBD,
12,Kyron O'Donnell,M,,,,Wraps,U23 Male,97,190,210,215,215,125,132.5,-135,132.5,205,227.5,-240,227.5,575,SBD,
13,Dillon Farrelly,M,,,,Wraps,U23 Male,95.3,-187.5,200,210,210,105,117.5,-125,117.5,200,217.5,225,225,552.5,SBD,
14,Christopher Reilly,M,,,,Wraps,U23 Male,80.2,180,190,197.5,197.5,80,87.5,92.5,92.5,180,192.5,202.5,202.5,492.5,SBD,
15,Oskars Vitolins,M,,,,Wraps,U23 Male,112.2,170,180,190,190,107.5,115,122.5,122.5,190,200,210,210,522.5,SBD,
16,Jamie Fitzgerald,M,,,,Wraps,U23 Male,134.7,190,-200,200,200,-105,105,110,110,205,220,235,235,545,SBD,
17,Jonathan Furlong,M,,,,Wraps,U23 Male,103.8,135,-145,150,150,85,90,92.5,92.5,170,185,200,200,442.5,SBD,
