Division,WeightClassKg,Place,Name,Team,BodyweightKg,Best3SquatKg,Best3BenchKg,Best3DeadliftKg,TotalKg,Equipment,Event,Sex,BirthDate
Boys,51.71,1,Giovanny Sanchez,Whitney,50.89,149.69,77.11,174.63,401.43,Unlimited,SBD,M,
Boys,51.71,DQ,Korbyn Pentoja,Azle,50.8,102.06,,,,Unlimited,SBD,M,
Boys,55.79,1,Braylon Stewart,Coleman,54.88,149.69,83.91,145.15,378.75,Unlimited,SBD,M,
Boys,55.79,2,Anthony York,Azle,55.16,120.2,79.38,138.35,337.93,Unlimited,SBD,M,
Boys,55.79,3,Erik Herrera,Whitney,55.07,124.74,70.31,117.93,312.98,Unlimited,SBD,M,
Boys,55.79,4,Justin Hurst,Fort Worth Western Hills,55.7,117.93,61.23,124.74,303.91,Unlimited,SBD,M,
Boys,55.79,DQ,Joel Torres,Whitney,55.52,127.01,,,,Unlimited,SBD,M,
Boys,59.87,1,Guadalupe Villareal,Whitney,59.87,185.97,102.06,206.38,494.42,Unlimited,SBD,M,
Boys,59.87,2,Alan Hard,Azle,59.06,183.7,102.06,192.78,478.54,Unlimited,SBD,M,
Boys,59.87,3,Tristyn Keaton,Azle,58.69,163.29,92.99,165.56,421.84,Unlimited,SBD,M,
Boys,59.87,4,Edgar Sanchez,Whitney,58.33,149.69,74.84,170.1,394.63,Unlimited,SBD,M,
Boys,59.87,5,Cooper Darden,Stephenville,58.06,131.54,77.11,133.81,342.46,Unlimited,SBD,M,
Boys,59.87,6,Noah Frausto,San Angelo Lake View,59.6,97.52,58.97,124.74,281.23,Unlimited,SBD,M,
Boys,59.87,DQ,Sean Sear,Lingleville,57.61,102.06,61.23,,,Unlimited,SBD,M,
Boys,67.13,1,Cayden Lawson,Azle,65.41,188.24,108.86,226.8,523.9,Unlimited,SBD,M,
Boys,67.13,2,Cooper McWilliams,Llano,65.77,158.76,106.59,174.63,439.98,Unlimited,SBD,M,
Boys,67.13,3,Jacob Ramirez,Coleman,64.41,151.95,106.59,174.63,433.18,Unlimited,SBD,M,
Boys,67.13,4,Dezi Delgado,Anson,63.87,147.42,92.99,151.95,392.36,Unlimited,SBD,M,
Boys,67.13,5,Braxton Champion,Stephenville,65.77,147.42,92.99,138.35,378.75,Unlimited,SBD,M,
Boys,67.13,6,Alexander Lozano,Anson,63.41,133.81,83.91,151.95,369.68,Unlimited,SBD,M,
Boys,67.13,7,Jesus Guzman,Fort Worth Diamond Hill-Jarvis,63.32,120.2,72.57,142.88,335.66,Unlimited,SBD,M,
Boys,67.13,DQ,Dominic Todd,Stephenville,66.95,104.33,,,,Unlimited,SBD,M,
Boys,67.13,DQ,Edgar Valles,Azle,66.68,174.63,124.74,,,Unlimited,SBD,M,
Boys,74.84,1,Braeden Packard,San Angelo Lake View,72.21,242.67,142.88,217.72,603.28,Unlimited,SBD,M,
Boys,74.84,2,Joshua Guzman,Azle,69.85,192.78,115.67,179.17,487.61,Unlimited,SBD,M,
Boys,74.84,3,Chad Pincelli,Llano,72.85,192.78,102.06,190.51,485.34,Unlimited,SBD,M,
Boys,74.84,4,Diego Paez,San Angelo Lake View,74.84,154.22,138.35,174.63,467.2,Unlimited,SBD,M,
Boys,74.84,5,Aidan Albright,Whitney,72.57,183.7,106.59,161.03,451.32,Unlimited,SBD,M,
Boys,74.84,6,Cole Chaplin,Stephenville,73.48,174.63,111.13,156.49,442.25,Unlimited,SBD,M,
Boys,74.84,7,Joshua Lemos,San Angelo Lake View,74.48,129.27,106.59,172.37,408.23,Unlimited,SBD,M,
Boys,74.84,8,Richard Rodriguez,San Angelo Lake View,73.57,136.08,88.45,161.03,385.55,Unlimited,SBD,M,
Boys,74.84,9,Eric Smith,Fort Worth Western Hills,74.03,124.74,99.79,140.61,365.14,Unlimited,SBD,M,
Boys,74.84,10,Daniel Aguero,Lingleville,74.75,142.88,61.23,154.22,358.34,Unlimited,SBD,M,
Boys,74.84,11,Kaden Carpenter,Lingleville,73.3,129.27,68.04,140.61,337.93,Unlimited,SBD,M,
Boys,74.84,DQ,O'Rylon Crockett,Fort Worth Western Hills,67.86,,,,,Unlimited,SBD,M,
Boys,74.84,DQ,Ethan Rogers,Whitney,72.57,,,,,Unlimited,SBD,M,
Boys,82.1,1,Ian Cortez,San Angelo Lake View,79.56,269.89,149.69,240.4,659.98,Unlimited,SBD,M,
Boys,82.1,2,Dominic Futrell,Whitney,79.56,217.72,136.08,226.8,580.6,Unlimited,SBD,M,
Boys,82.1,3,Jake Pack,Stephenville,80.29,226.8,136.08,215.46,578.33,Unlimited,SBD,M,
Boys,82.1,4,Taylor Tibbs,Llano,79.92,188.24,142.88,183.7,514.83,Unlimited,SBD,M,
Boys,82.1,5,Hayden Hernandez,Stephenville,80.74,195.04,127.01,190.51,512.56,Unlimited,SBD,M,
Boys,82.1,6,Dusty Miller,Llano,77.38,190.51,113.4,197.31,501.22,Unlimited,SBD,M,
Boys,82.1,7,Karsten Brigman,Stephenville,80.74,183.7,124.74,183.7,492.15,Unlimited,SBD,M,
Boys,82.1,8,Marciano Rios,Fort Worth Diamond Hill-Jarvis,81.65,170.1,102.06,165.56,437.72,Unlimited,SBD,M,
Boys,82.1,9,Damien Luna,San Angelo Lake View,81.28,149.69,111.13,158.76,419.57,Unlimited,SBD,M,
Boys,82.1,DQ,Jimmy Diaz,Coleman,75.84,176.9,,,,Unlimited,SBD,M,
Boys,89.81,1,Tyler Ulrich,Azle,84.64,235.87,154.22,226.8,616.89,Unlimited,SBD,M,
Boys,89.81,2,Justin Stephens,Stephenville,85.87,208.65,151.95,226.8,587.4,Unlimited,SBD,M,
Boys,89.81,3,Christian Dehoyas,Azle,87.82,226.8,127.01,226.8,580.6,Unlimited,SBD,M,
Boys,89.81,4,John Aguirre,San Angelo Lake View,85.73,185.97,124.74,161.03,471.74,Unlimited,SBD,M,
Boys,89.81,5,Jonah Cottongame,Whitney,84.73,165.56,120.2,174.63,460.4,Unlimited,SBD,M,
Boys,89.81,6,Alex Hernandez,Fort Worth Diamond Hill-Jarvis,87.36,170.1,95.25,163.29,428.64,Unlimited,SBD,M,
Boys,89.81,7,Hector Jimenez,Fort Worth Diamond Hill-Jarvis,89.72,106.59,63.5,147.42,317.51,Unlimited,SBD,M,
Boys,89.81,DQ,Alijah Lozano,Anson,88.81,,,,,Unlimited,SBD,M,
Boys,99.79,1,Case Moore,Azle,96.52,274.42,192.78,226.8,694,Unlimited,SBD,M,
Boys,99.79,2,Josh Raga,Fort Worth Western Hills,99.7,231.33,142.88,204.12,578.33,Unlimited,SBD,M,
Boys,99.79,3,John Nesselroad,Whitney,90.72,206.38,127.01,235.87,569.26,Unlimited,SBD,M,
Boys,99.79,4,Leavy Owens,Azle,91.63,219.99,140.61,206.38,566.99,Unlimited,SBD,M,
Boys,99.79,5,Michael Logan,Llano,98.79,206.38,142.88,192.78,542.04,Unlimited,SBD,M,
Boys,99.79,6,Billy Everhart,Llano,99.74,204.12,127.01,197.31,528.44,Unlimited,SBD,M,
Boys,99.79,7,Coy Cleveland,Stephenville,98.7,183.7,133.81,165.56,483.08,Unlimited,SBD,M,
Boys,99.79,8,Valente Ibarra,Stephenville,94.17,183.7,108.86,188.24,480.81,Unlimited,SBD,M,
Boys,99.79,9,Pablo Vega,Stephenville,90.17,181.44,97.52,183.7,462.66,Unlimited,SBD,M,
Boys,99.79,DQ,Hayden Parker,Anson,95.07,192.78,115.67,,,Unlimited,SBD,M,
Boys,109.77,1,Xavier Rangel,San Angelo Lake View,108.05,226.8,147.42,188.24,562.45,Unlimited,SBD,M,
Boys,109.77,2,Kasen Thomas,Azle,104.33,215.46,131.54,185.97,532.97,Unlimited,SBD,M,
Boys,109.77,3,Frank Machuga,Llano,102.33,215.46,124.74,183.7,523.9,Unlimited,SBD,M,
Boys,109.77,4,Damian Smiley,Whitney,105.51,199.58,124.74,197.31,521.63,Unlimited,SBD,M,
Boys,109.77,5,Mason Hodges,Stephenville,100.24,197.31,113.4,183.7,494.42,Unlimited,SBD,M,
Boys,109.77,6,Rolando Roman,San Angelo Lake View,105.41,142.88,97.52,174.63,415.04,Unlimited,SBD,M,
Boys,109.77,DQ,Reid Cogburn,Lingleville,101.88,149.69,,158.76,,Unlimited,SBD,M,
Boys,109.77,DQ,Rob Harrison,Stephenville,107.95,204.12,142.88,,,Unlimited,SBD,M,
Boys,124.74,1,Oscar Camacho,Coleman,117.12,317.51,192.78,263.08,773.37,Unlimited,SBD,M,
Boys,124.74,2,Kevin Cruz,Fort Worth Western Hills,112.04,260.82,170.1,206.38,637.3,Unlimited,SBD,M,
Boys,124.74,3,Joshua Cooper,Llano,120.02,219.99,131.54,219.99,571.53,Unlimited,SBD,M,
Boys,124.74,4,Cooper Doty,Stephenville,122.02,197.31,133.81,210.92,542.04,Unlimited,SBD,M,
Boys,124.74,5,Micah Moreno,Anson,111.22,210.92,124.74,163.29,498.95,Unlimited,SBD,M,
Boys,124.74,6,Scotty Prouty,Stephenville,123.29,179.17,138.35,161.03,478.54,Unlimited,SBD,M,
Boys,124.74,7,Caysen Bergt,Stephenville,121.65,195.04,106.59,165.56,467.2,Unlimited,SBD,M,
Boys,124.74,8,Joshua Wills,San Angelo Lake View,121.11,142.88,108.86,151.95,403.7,Unlimited,SBD,M,
Boys,139.71,1,Kolton Dearth,Stephenville,125.28,238.14,161.03,226.8,625.96,Unlimited,SBD,M,
Boys,139.71,2,Erik Arellano,Fort Worth Diamond Hill-Jarvis,136.62,111.13,61.23,124.74,297.1,Unlimited,SBD,M,
