Division,WeightClassKg,Place,Name,Team,BodyweightKg,Best3SquatKg,Best3BenchKg,Best3DeadliftKg,TotalKg,Equipment,Event,Sex,BirthDate
Boys,51.71,1,Marcelo Correa,Conroe The Woodlands,51.71,97.52,74.84,113.4,285.76,Unlimited,SBD,M,
Boys,59.87,1,Matthew Acevedo,Montgomery Lake Creek,59.87,70.31,43.09,102.06,215.46,Unlimited,SBD,M,
Boys,67.13,1,Alex Patry,Conroe The Woodlands,67.13,170.1,86.18,183.7,439.98,Unlimited,SBD,M,
Boys,67.13,2,Xavier Zambrano,Conroe The Woodlands,67.13,138.35,102.06,170.1,410.5,Unlimited,SBD,M,
Boys,67.13,3,Kaleb Hill,Conroe The Woodlands,67.13,156.49,77.11,158.76,392.36,Unlimited,SBD,M,
Boys,67.13,4,Alex Musante,Conroe The Woodlands,67.13,142.88,79.38,165.56,387.82,Unlimited,SBD,M,
Boys,67.13,5,Landon Lutz,Montgomery,67.13,136.08,79.38,154.22,369.68,Unlimited,SBD,M,
Boys,67.13,6,Cohen Rogers,Montgomery,67.13,138.35,72.57,142.88,353.8,Unlimited,SBD,M,
Boys,67.13,7,Felipe Ramirez,Montgomery Lake Creek,62.6,124.74,77.11,149.69,351.53,Unlimited,SBD,M,
Boys,67.13,8,Jake West,Conroe The Woodlands,67.13,124.74,92.99,124.74,342.46,Unlimited,SBD,M,
Boys,67.13,9,Bryce Miles,Montgomery,67.13,117.93,63.5,136.08,317.51,Unlimited,SBD,M,
Boys,67.13,10,Jayden Andres,Montgomery,60.33,102.06,52.16,115.67,269.89,Unlimited,SBD,M,
Boys,74.84,1,Caysen Davis,Montgomery Lake Creek,70.76,183.7,127.01,179.17,489.88,Unlimited,SBD,M,
Boys,74.84,2,Konrad Lobza,Conroe The Woodlands,74.84,190.51,106.59,167.83,464.93,Unlimited,SBD,M,
Boys,74.84,3,Clay Bailey,Montgomery Lake Creek,74.84,174.63,95.25,183.7,453.59,Unlimited,SBD,M,
Boys,74.84,4,Kalani Eulitt,Montgomery Lake Creek,74.84,151.95,88.45,161.03,401.43,Unlimited,SBD,M,
Boys,74.84,5,Samuel Repassy,Conroe The Woodlands,74.84,102.06,63.5,127.01,292.57,Unlimited,SBD,M,
Boys,82.1,1,Jaxen Hamer,Conroe The Woodlands,82.1,192.78,104.33,206.38,503.49,Unlimited,SBD,M,
Boys,82.1,2,Lance Ehlers,Montgomery,82.1,183.7,111.13,174.63,469.47,Unlimited,SBD,M,
Boys,82.1,3,Baylor Smith,Montgomery,82.1,147.42,108.86,172.37,428.64,Unlimited,SBD,M,
Boys,82.1,4,Bryce Maddux,Conroe The Woodlands,82.1,131.54,74.84,165.56,371.95,Unlimited,SBD,M,
Boys,82.1,5,Elijah Rivas,Montgomery,76.2,124.74,83.91,158.76,367.41,Unlimited,SBD,M,
Boys,89.81,1,Kingsley Osili,Montgomery Lake Creek,89.81,197.31,117.93,197.31,512.56,Unlimited,SBD,M,
Boys,89.81,2,Owen Stephens,Montgomery Lake Creek,84.37,174.63,108.86,174.63,458.13,Unlimited,SBD,M,
Boys,89.81,3,Christian Ronning,Montgomery Lake Creek,85.73,170.1,111.13,172.37,453.59,Unlimited,SBD,M,
Boys,89.81,4,Maverick Barsh,Montgomery Lake Creek,89.81,136.08,92.99,142.88,371.95,Unlimited,SBD,M,
Boys,89.81,DQ,Peyton Vann,Montgomery Lake Creek,89.81,,,,,Unlimited,SBD,M,
Boys,99.79,1,Jakob Wetzel,Montgomery Lake Creek,99.79,197.31,120.2,226.8,544.31,Unlimited,SBD,M,
Boys,99.79,2,Haiden Mellor,Montgomery,97.07,120.2,113.4,158.76,392.36,Unlimited,SBD,M,
Boys,109.77,1,Jyree Jefferson,Conroe The Woodlands,109.77,208.65,127.01,204.12,539.77,Unlimited,SBD,M,
Boys,109.77,2,Lincoln Montecino,Montgomery Lake Creek,101.15,142.88,92.99,151.95,387.82,Unlimited,SBD,M,
Boys,124.74,1,Landon Bowden,Montgomery,124.74,226.8,165.56,206.38,598.74,Unlimited,SBD,M,
Boys,139.71,DQ,Izaac Price,Montgomery Lake Creek,131.54,,,,,Unlimited,SBD,M,
