Division,WeightClassKg,Place,Name,Team,BodyweightKg,Best3SquatKg,Best3BenchKg,Best3DeadliftKg,TotalKg,Equipment,Event,Sex,BirthDate
Boys,51.71,1,Nick Aranda,Geronimo Navarro,51.44,133.81,92.99,174.63,401.43,Unlimited,SBD,M,
Boys,51.71,2,Victor Madrigal,San Diego,48.44,142.88,83.91,140.61,367.41,Unlimited,SBD,M,
Boys,51.71,3,Brody Wyatt,Corpus Christi Calallen,51.35,124.74,88.45,147.42,360.61,Unlimited,SBD,M,
Boys,51.71,4,James Martinez,Corpus Christi London,50.71,131.54,88.45,136.08,356.07,Unlimited,SBD,M,
Boys,51.71,5,Damien Jimenez,Hebbronville,51.35,136.08,88.45,127.01,351.53,Unlimited,SBD,M,
Boys,51.71,6,Dominik Rivera,Orange Grove,51.71,108.86,70.31,140.61,319.78,Unlimited,SBD,M,
Boys,51.71,7,Martin Torres,Freer,51.71,111.13,65.77,131.54,308.44,Unlimited,SBD,M,
Boys,51.71,8,Ezekiel Carrizales,Corpus Christi Calallen,51.62,111.13,74.84,115.67,301.64,Unlimited,SBD,M,
Boys,51.71,DQ,Siah Moss,Hebbronville,51.71,,,,,Unlimited,SBD,M,
Boys,55.79,1,Tanner Weaver,Orange Grove,55.16,172.37,102.06,170.1,444.52,Unlimited,SBD,M,
Boys,55.79,2,Ayden Benavidez,Corpus Christi London,55.07,179.17,102.06,158.76,439.98,Unlimited,SBD,M,
Boys,55.79,3,JJ Gonzalez,Bruni,52.8,151.95,108.86,154.22,415.04,Unlimited,SBD,M,
Boys,55.79,4,Andrew Goggin,Orange Grove,55.79,145.15,86.18,142.88,374.21,Unlimited,SBD,M,
Boys,55.79,5,Aiden Benavides,Corpus Christi Calallen,54.25,83.91,56.7,115.67,256.28,Unlimited,SBD,M,
Boys,55.79,DQ,Timothy Ingram,Orange Grove,55.79,,,,,Unlimited,SBD,M,
Boys,59.87,1,Daniel Trevino,San Diego,58.15,183.7,147.42,181.44,512.56,Unlimited,SBD,M,
Boys,59.87,2,Ashton Evans,Geronimo Navarro,59.87,190.51,122.47,188.24,501.22,Unlimited,SBD,M,
Boys,59.87,3,Patrick Barnett,Corpus Christi Calallen,59.51,183.7,92.99,183.7,460.4,Unlimited,SBD,M,
Boys,59.87,4,Connor Rackley,Corpus Christi Calallen,56.34,176.9,111.13,165.56,453.59,Unlimited,SBD,M,
Boys,59.87,5,Adam Quintero,Bruni,59.42,156.49,108.86,172.37,437.72,Unlimited,SBD,M,
Boys,59.87,6,Evan Rodriguez,Geronimo Navarro,56.79,163.29,92.99,172.37,428.64,Unlimited,SBD,M,
Boys,59.87,7,Jaziel Garza,Hebbronville,57.42,142.88,77.11,136.08,356.07,Unlimited,SBD,M,
Boys,59.87,8,Jose Perez,Bruni,59.15,129.27,74.84,142.88,347,Unlimited,SBD,M,
Boys,59.87,DQ,Austin Wesselski,Corpus Christi London,58.69,,,,,Unlimited,SBD,M,
Boys,67.13,1,Gabe Rangel,Geronimo Navarro,67.13,215.46,147.42,217.72,580.6,Unlimited,SBD,M,
Boys,67.13,2,Easton Nguyen,Corpus Christi London,66.77,215.46,142.88,219.99,578.33,Unlimited,SBD,M,
Boys,67.13,3,Zak Chapa,Corpus Christi London,65.86,224.53,136.08,213.19,573.79,Unlimited,SBD,M,
Boys,67.13,4,Joseph Benavides,Corpus Christi London,64.86,190.51,145.15,210.92,546.58,Unlimited,SBD,M,
Boys,67.13,5,Joshua Arroyos,Beeville Jones,67.13,199.58,104.33,222.26,526.17,Unlimited,SBD,M,
Boys,67.13,6,Isaiah Saenz,San Diego,65.68,176.9,111.13,183.7,471.74,Unlimited,SBD,M,
Boys,67.13,7,Dylan Trotti,Geronimo Navarro,64.23,172.37,117.93,167.83,458.13,Unlimited,SBD,M,
Boys,67.13,8,Justin Edison,Goliad,64.14,158.76,108.86,179.17,446.79,Unlimited,SBD,M,
Boys,67.13,9,Diego Padilla,Bruni,65.32,136.08,142.88,161.03,439.98,Unlimited,SBD,M,
Boys,67.13,10,Roel Pina,Freer,65.5,165.56,86.18,176.9,428.64,Unlimited,SBD,M,
Boys,67.13,11,Maddox Simpson,Goliad,64.32,133.81,70.31,138.35,342.46,Unlimited,SBD,M,
Boys,67.13,12,Robert Smith,Agua Dulce,65.86,129.27,77.11,129.27,335.66,Unlimited,SBD,M,
Boys,67.13,13,Hunter Lange,Agua Dulce,62.41,102.06,61.23,138.35,301.64,Unlimited,SBD,M,
Boys,67.13,DQ,Evan Garza,Orange Grove,67.13,208.65,,,,Unlimited,SBD,M,
Boys,67.13,DQ,Luis Lopez,Hebbronville,61.51,,,,,Unlimited,SBD,M,
Boys,74.84,1,GianCarlo Mirabal,Corpus Christi London,73.21,254.01,183.7,242.67,680.39,Unlimited,SBD,M,
Boys,74.84,2,Jake Le,Corpus Christi London,73.03,215.46,151.95,215.46,582.87,Unlimited,SBD,M,
Boys,74.84,3,Larry Saenz,Corpus Christi Calallen,74.75,217.72,138.35,172.37,528.44,Unlimited,SBD,M,
Boys,74.84,4,Thor Jensen,Geronimo Navarro,73.21,188.24,120.2,217.72,526.17,Unlimited,SBD,M,
Boys,74.84,5,Jared Rodriguez,San Diego,73.3,204.12,117.93,204.12,526.17,Unlimited,SBD,M,
Boys,74.84,6,Jesus Jimenez,Hebbronville,74.12,199.58,108.86,215.46,523.9,Unlimited,SBD,M,
Boys,74.84,7,Garon Ortiz,San Diego,73.66,190.51,136.08,192.78,519.36,Unlimited,SBD,M,
Boys,74.84,8,Connor Shiroky,Geronimo Navarro,74.75,181.44,129.27,204.12,514.83,Unlimited,SBD,M,
Boys,74.84,9,Gavin Moncada,Orange Grove,72.3,197.31,129.27,179.17,505.76,Unlimited,SBD,M,
Boys,74.84,10,Elian Sanchez,Goliad,73.21,161.03,102.06,183.7,446.79,Unlimited,SBD,M,
Boys,74.84,11,Josh Smith,Agua Dulce,74.3,158.76,77.11,151.95,387.82,Unlimited,SBD,M,
Boys,74.84,DQ,Ian Phillips,Orange Grove,74.84,204.12,,,,Unlimited,SBD,M,
Boys,82.1,1,John Garcia,Corpus Christi London,80.2,217.72,179.17,226.8,623.69,Unlimited,SBD,M,
Boys,82.1,2,Chad Rozypal,Corpus Christi London,79.83,204.12,136.08,213.19,553.38,Unlimited,SBD,M,
Boys,82.1,3,Josh Valdez,Goliad,78.83,204.12,142.88,190.51,537.51,Unlimited,SBD,M,
Boys,82.1,4,Dominic Huerta,Agua Dulce,80.1,199.58,151.95,179.17,530.7,Unlimited,SBD,M,
Boys,82.1,5,Derek Barrera,San Diego,80.38,174.63,142.88,213.19,530.7,Unlimited,SBD,M,
Boys,82.1,6,Antonio Vasquez,Orange Grove,79.11,190.51,140.61,188.24,519.36,Unlimited,SBD,M,
Boys,82.1,7,Mason Leon Guerrero,Orange Grove,80.83,188.24,120.2,197.31,505.76,Unlimited,SBD,M,
Boys,82.1,8,Luke Mitchell,Corpus Christi Calallen,81.37,174.63,124.74,183.7,483.08,Unlimited,SBD,M,
Boys,82.1,9,Jo Jo Martinez,Goliad,82.1,188.24,124.74,165.56,478.54,Unlimited,SBD,M,
Boys,82.1,10,Ray Espinoza,Beeville Jones,76.75,170.1,136.08,167.83,474,Unlimited,SBD,M,
Boys,82.1,11,Damian Rosas,Agua Dulce,79.83,165.56,97.52,204.12,467.2,Unlimited,SBD,M,
Boys,82.1,12,Luke Garza,Corpus Christi Calallen,78.2,165.56,108.86,172.37,446.79,Unlimited,SBD,M,
Boys,82.1,13,Jeremiah Perez,Bruni,76.29,158.76,72.57,127.01,358.34,Unlimited,SBD,M,
Boys,82.1,DQ,Gavin Pena,Corpus Christi Calallen,80.01,165.56,108.86,,,Unlimited,SBD,M,
Boys,82.1,DQ,Levi Martinez,Hebbronville,79.83,197.31,136.08,,,Unlimited,SBD,M,
Boys,89.81,1,Ryne Espinoza,Beeville Jones,83.46,299.37,185.97,249.48,734.82,Unlimited,SBD,M,
Boys,89.81,2,Andrew Rendon,Corpus Christi London,88.54,242.67,174.63,240.4,657.71,Unlimited,SBD,M,
Boys,89.81,3,Matt Richardson,Geronimo Navarro,86.82,231.33,167.83,229.06,628.23,Unlimited,SBD,M,
Boys,89.81,4,Mack Berry,Geronimo Navarro,86.55,213.19,174.63,238.14,625.96,Unlimited,SBD,M,
Boys,89.81,5,Carlos Loredo,Beeville Jones,88,208.65,111.13,197.31,517.1,Unlimited,SBD,M,
Boys,89.81,6,Kaden Guerra,Geronimo Navarro,84.82,183.7,140.61,176.9,501.22,Unlimited,SBD,M,
Boys,89.81,DQ,Dominic Smith,Beeville Jones,86,183.7,,,,Unlimited,SBD,M,
Boys,99.79,1,James Bahn,Orange Grove,96.34,240.4,147.42,210.92,598.74,Unlimited,SBD,M,
Boys,99.79,2,Mason Harvey,Geronimo Navarro,94.35,201.85,145.15,219.99,566.99,Unlimited,SBD,M,
Boys,99.79,3,Tony Tamez,Hebbronville,93.53,199.58,115.67,217.72,532.97,Unlimited,SBD,M,
Boys,99.79,4,Jonah Uribe,Freer,90.45,185.97,111.13,156.49,453.59,Unlimited,SBD,M,
Boys,99.79,5,Levi Gallup,Corpus Christi Calallen,95.89,163.29,120.2,142.88,426.38,Unlimited,SBD,M,
Boys,99.79,6,Jason Rodriguez,Freer,98.16,147.42,77.11,147.42,371.95,Unlimited,SBD,M,
Boys,99.79,DQ,Jacob Martin,Beeville Jones,97.07,249.48,,,,Unlimited,SBD,M,
Boys,99.79,DQ,Steven Villatoro,Orange Grove,95.62,188.24,,,,Unlimited,SBD,M,
Boys,99.79,DQ,Jace Brandt,Orange Grove,99.79,,,,,Unlimited,SBD,M,
Boys,109.77,1,Leo Herrera,Hebbronville,101.06,272.16,185.97,263.08,721.21,Unlimited,SBD,M,
Boys,109.77,2,Dominic Romero,San Diego,107.95,272.16,183.7,242.67,698.53,Unlimited,SBD,M,
Boys,109.77,3,Seth Barnes,Orange Grove,109.77,226.8,183.7,215.46,625.96,Unlimited,SBD,M,
Boys,109.77,4,Ethan Sanchez,Beeville Jones,100.97,233.6,113.4,195.04,542.04,Unlimited,SBD,M,
Boys,109.77,5,Marcel Molina,San Diego,101.97,181.44,142.88,190.51,514.83,Unlimited,SBD,M,
Boys,109.77,6,Ruben Contreras,Freer,101.24,206.38,113.4,185.97,505.76,Unlimited,SBD,M,
Boys,109.77,7,Eugene Soliz,San Diego,102.06,176.9,124.74,185.97,487.61,Unlimited,SBD,M,
Boys,109.77,8,Richard Lurch,Beeville Jones,105.87,172.37,122.47,170.1,464.93,Unlimited,SBD,M,
Boys,109.77,9,Brandon Pena,Hebbronville,103.78,158.76,115.67,183.7,458.13,Unlimited,SBD,M,
Boys,109.77,DQ,Jose Alaniz,Hebbronville,106.5,,,,,Unlimited,SBD,M,
Boys,124.74,1,Arnulfo Puga,Beeville Jones,122.2,285.76,190.51,219.99,696.26,Unlimited,SBD,M,
Boys,124.74,2,Ariel Alvarado,San Diego,120.75,294.84,158.76,215.46,669.05,Unlimited,SBD,M,
Boys,124.74,3,Alejandro Delgado,Agua Dulce,120.93,244.94,188.24,208.65,641.83,Unlimited,SBD,M,
Boys,124.74,4,Nathan Bain,Corpus Christi London,113.04,229.06,129.27,226.8,585.13,Unlimited,SBD,M,
Boys,124.74,5,Luis Mendoza,Geronimo Navarro,111.58,208.65,133.81,219.99,562.45,Unlimited,SBD,M,
Boys,124.74,6,Jesse Contreras,Freer,110.13,206.38,104.33,185.97,496.68,Unlimited,SBD,M,
Boys,124.74,DQ,Marcelo Armenta,Beeville Jones,115.85,,,,,Unlimited,SBD,M,
Boys,124.74,DQ,Jj Trevino,San Diego,123.83,,,,,Unlimited,SBD,M,
Boys,139.71,1,Adren Flores,Hebbronville,125.74,263.08,185.97,217.72,666.78,Unlimited,SBD,M,
Boys,139.71,2,Eli Juarez,Freer,132.27,285.76,181.44,195.04,662.24,Unlimited,SBD,M,
Boys,139.71,3,Mason Castillo,Orange Grove,135.44,233.6,111.13,188.24,532.97,Unlimited,SBD,M,
Boys,139.71+,1,Patrick Davis,Corpus Christi Calallen,149.32,272.16,192.78,233.6,698.53,Unlimited,SBD,M,
Boys,139.71+,2,Peyton Torres,Beeville Jones,149.87,263.08,195.04,219.99,678.12,Unlimited,SBD,M,
Boys,139.71+,DQ,Luka Garza,Agua Dulce,155.49,,,,,Unlimited,SBD,M,
